{
  "name": "mediquo-professionals-lib",
  "version": "0.0.33",
  "summary": "MediQuo Professional Framework for iOS Lib",
  "authors": {
    "Medipremium, S.L.": "medipremium@gmail.com"
  },
  "license": {
    "type": "Copyright",
    "text": "Copyright © 2019 Medipremium S.L. All rights reserved."
  },
  "source": {
    "http": "https://mediquo.bintray.com/generic/mediquo_professionals_lib_0.0.33.zip"
  },
  "homepage": "https://www.medipremium.com",
  "platforms": {
    "ios": "11.0"
  },
  "swift_version": "4.2",
  "module_name": "mediquo_professionals_lib",
  "ios": {
    "frameworks": [
      "Foundation",
      "CoreLocation",
      "UIKit"
    ],
    "vendored_frameworks": "MediQuo/mediquo_professionals_lib.framework",
    "dependencies": {
      "Alamofire": [
        "4.7.2"
      ],
      "CryptoSwift": [
        "0.15.0"
      ],
      "Device": [
        "3.1.2"
      ],
      "Firebase": [
        "5.16.0"
      ],
      "FirebaseAnalytics": [
        "5.5.0"
      ],
      "FirebaseAnalyticsInterop": [
        "1.1.0"
      ],
      "FirebaseCore": [
        "5.2.0"
      ],
      "FirebaseInstanceID": [
        "3.4.0"
      ],
      "FirebaseMessaging": [
        "3.3.0"
      ],
      "LicensePlist": [
        "2.5.0"
      ],
      "MessageKit": [
        "2.0.0"
      ],
      "PromiseKit": [
        "6.8"
      ],
      "SDWebImage": [
        "5.0"
      ],
      "Socket.IO-Client-Swift": [
        "13.2.1"
      ],
      "SwiftGen": [
        "6.0"
      ],
      "SwiftFormat/CLI": [
        "0.33.7"
      ],
      "SwiftLint": [
        "0.25.1"
      ],
      "Swinject": [
        "2.6.0"
      ],
      "SwinjectStoryboard": [
        "2.2.0"
      ]
    }
  }
}
