{
  "name": "MediQuoServices",
  "version": "0.1",
  "summary": "MediQuoServices Framework for iOS",
  "authors": {
    "Medipremium, S.L.": "medipremium@gmail.com"
  },
  "license": {
    "type": "Copyright",
    "text": "Copyright © 2018 Medipremium S.L. All rights reserved."
  },
  "source": {
    "http": "https://mediquo.bintray.com/generic/MediQuoServices_0.1.zip"
  },
  "homepage": "https://www.medipremium.com",
  "platforms": {
    "ios": "10.0"
  },
  "swift_version": "4.0",
  "module_name": "MediQuoServices",
  "ios": {
    "frameworks": [
      "Foundation",
      "CoreLocation",
      "UIKit"
    ],
    "vendored_frameworks": "MediQuo/MediQuoServices.framework",
    "dependencies": {
      "MediQuo-Core": [
        "0.23-beta.9"
      ],
      "MediQuo-Schema": [
        "0.23-beta.9"
      ],
      "MediQuo-Controller": [
        "0.23-beta.9"
      ],
      "MediQuo-Storage": [
        "0.23-beta.9"
      ],
      "MediQuo-Remote": [
        "0.23-beta.9"
      ],
      "SwiftyDrop": [
        "~> 4.0.2"
      ],
      "SwiftyMarkdown": [
        "~> 0.5.1"
      ],
      "KMPlaceholderTextView": [
        "~> 1.3.0"
      ],
      "ObjectMapper": [
        "~> 3.1.0"
      ],
      "AlamofireImage": [
        "3.3.1"
      ],
      "Alamofire": [
        "4.7.2"
      ],
      "AlamofireObjectMapper": [
        "~> 5.0.0"
      ],
      "SwiftyJSON": [
        "~> 4.0.0"
      ]
    }
  }
}
