{
  "name": "MediQuo-Socket",
  "version": "0.19.beta1",
  "summary": "MediQuo Socket Framework for iOS",
  "authors": {
    "Medipremium, S.L.": "medipremium@gmail.com"
  },
  "license": {
    "type": "Copyright",
    "text": "Copyright © 2018 Medipremium S.L. All rights reserved."
  },
  "source": {
    "http": "https://mediquo.bintray.com/generic/MediQuoSocket_0.19.beta1.zip"
  },
  "homepage": "https://www.medipremium.com",
  "platforms": {
    "ios": "10.0"
  },
  "module_name": "MediQuoSocket",
  "ios": {
    "frameworks": [
      "Foundation",
      "UIKit"
    ],
    "vendored_frameworks": "MediQuo/MediQuoSocket.framework",
    "dependencies": {
      "MediQuo-Core": [
        "0.19.beta1"
      ],
      "MediQuo-Schema": [
        "0.19.beta1"
      ],
      "MediQuo-Controller": [
        "0.19.beta1"
      ],
      "Socket.IO-Client-Swift": [
        "13.1.3"
      ]
    }
  }
}
