{
  "name": "MediQuo-Storage",
  "version": "0.35.30",
  "summary": "MediQuo Storage Framework for iOS",
  "authors": {
    "Medipremium, S.L.": "medipremium@gmail.com"
  },
  "license": {
    "type": "Copyright",
    "text": "Copyright © 2019 Medipremium S.L. All rights reserved."
  },
  "source": {
    "http": "https://mediquo.bintray.com/generic/MediQuoStorage_0.35.30.zip"
  },
  "homepage": "https://www.medipremium.com",
  "platforms": {
    "ios": "11.0"
  },
  "swift_version": "4.2",
  "module_name": "MediQuoStorage",
  "ios": {
    "frameworks": [
      "Foundation",
      "CoreLocation",
      "UIKit"
    ],
    "vendored_frameworks": "MediQuo/MediQuoStorage.framework",
    "dependencies": {
      "MediQuo-Core": [
        "0.35.30"
      ],
      "MediQuo-Schema": [
        "0.35.30"
      ],
      "MediQuo-Controller": [
        "0.35.30"
      ],
      "MediQuo-Socket": [
        "0.35.30"
      ],
      "RealmSwift": [
        "3.10.0"
      ]
    }
  }
}
