{
  "name": "MediQuo-Core",
  "version": "0.35.15",
  "summary": "MediQuo Core Framework for iOS",
  "authors": {
    "Medipremium, S.L.": "medipremium@gmail.com"
  },
  "license": {
    "type": "Copyright",
    "text": "Copyright © 2019 Medipremium S.L. All rights reserved."
  },
  "source": {
    "http": "https://mediquo.bintray.com/generic/MediQuoCore_0.35.15.zip"
  },
  "homepage": "https://www.medipremium.com",
  "platforms": {
    "ios": "11.0"
  },
  "swift_version": "4.2",
  "module_name": "MediQuoCore",
  "ios": {
    "frameworks": [
      "Foundation",
      "UIKit",
      "CoreLocation"
    ],
    "vendored_frameworks": "MediQuo/MediQuoCore.framework"
  }
}
