{
  "name": "MediQuo",
  "version": "0.29.2",
  "summary": "MediQuo Framework for iOS",
  "authors": {
    "Medipremium, S.L.": "medipremium@gmail.com"
  },
  "license": {
    "type": "Copyright",
    "text": "Copyright © 2019 Medipremium S.L. All rights reserved."
  },
  "source": {
    "http": "https://mediquo.bintray.com/generic/MediQuo_0.29.2.zip"
  },
  "homepage": "https://www.medipremium.com",
  "platforms": {
    "ios": "11.0"
  },
  "swift_version": "4.2",
  "module_name": "MediQuo",
  "ios": {
    "frameworks": [
      "Foundation",
      "CoreLocation",
      "UIKit",
      "Photos",
      "StoreKit"
    ],
    "vendored_frameworks": "MediQuo/MediQuo.framework",
    "dependencies": {
      "MediQuo-Core": [
        "0.29.2"
      ],
      "MediQuo-Schema": [
        "0.29.2"
      ],
      "MediQuo-Controller": [
        "0.29.2"
      ],
      "MediQuo-Remote": [
        "0.29.2"
      ],
      "MediQuo-Socket": [
        "0.29.2"
      ],
      "MediQuo-Storage": [
        "0.29.2"
      ],
      "AlamofireImage": [
        "3.4.0"
      ],
      "MessageKit": [
        "2.0.0"
      ],
      "R.swift": [
        "5.0.0.alpha.3"
      ],
      "Swinject": [
        "2.5.0"
      ],
      "SwinjectStoryboard": [
        "2.1.0"
      ]
    }
  }
}
