{
  "name": "MediQuo-Controller",
  "version": "0.35.57",
  "summary": "MediQuo Controller Framework for iOS",
  "authors": {
    "Medipremium, S.L.": "medipremium@gmail.com"
  },
  "license": {
    "type": "Copyright",
    "text": "Copyright © 2019 Medipremium S.L. All rights reserved."
  },
  "source": {
    "http": "https://mediquo.bintray.com/generic/MediQuoController_0.35.57.zip"
  },
  "homepage": "https://www.medipremium.com",
  "platforms": {
    "ios": "11.0"
  },
  "swift_version": "4.2",
  "module_name": "MediQuoController",
  "ios": {
    "frameworks": [
      "Foundation",
      "CoreLocation",
      "UIKit",
      "Photos",
      "AdSupport"
    ],
    "vendored_frameworks": "MediQuo/MediQuoController.framework",
    "dependencies": {
      "MediQuo-Core": [
        "0.35.57"
      ],
      "MediQuo-Schema": [
        "0.35.57"
      ],
      "RxBlocking": [
        "4.4.1"
      ],
      "RxSwift": [
        "4.4.1"
      ],
      "SwiftDate": [
        "4.5.1"
      ],
      "AWSMobileClient": [
        "2.9.3"
      ],
      "AWSS3": [
        "2.9.3"
      ]
    }
  }
}
