{
  "name": "MediQuoWp",
  "version": "0.6.2",
  "summary": "MediQuo Wordpress Framework for iOS",
  "authors": {
    "Medipremium, S.L.": "medipremium@gmail.com"
  },
  "license": {
    "type": "Copyright",
    "text": "Copyright © 2018 Medipremium S.L. All rights reserved."
  },
  "source": {
    "http": "https://mediquo.bintray.com/generic/Mediquo_wp_0.6.2.zip"
  },
  "homepage": "https://www.medipremium.com",
  "platforms": {
    "ios": "11.0"
  },
  "swift_version": "4.2",
  "module_name": "Mediquo_wp",
  "ios": {
    "frameworks": [
      "Foundation",
      "CoreLocation",
      "UIKit"
    ],
    "vendored_frameworks": "MediQuo/Mediquo_wp.framework",
    "dependencies": {
      "AlamofireImage": [
        "3.4.0"
      ],
      "Alamofire": [
        "4.7.2"
      ],
      "MediQuo-Remote": [
        "~> 0.31.0"
      ],
      "MediQuo-Storage": [
        "~> 0.31.0"
      ],
      "R.swift": [
        ">= 4.0.0"
      ]
    }
  }
}
