{
  "name": "MediQuo-Controller",
  "version": "0.22.1",
  "summary": "MediQuo Controller Framework for iOS",
  "authors": {
    "Medipremium, S.L.": "medipremium@gmail.com"
  },
  "license": {
    "type": "Copyright",
    "text": "Copyright © 2018 Medipremium S.L. All rights reserved."
  },
  "source": {
    "http": "https://mediquo.bintray.com/generic/MediQuoController_0.22.1.zip"
  },
  "homepage": "https://www.medipremium.com",
  "platforms": {
    "ios": "10.0"
  },
  "swift_version": "4.0",
  "module_name": "MediQuoController",
  "ios": {
    "frameworks": [
      "Foundation",
      "CoreLocation",
      "UIKit",
      "Photos",
      "AdSupport"
    ],
    "vendored_frameworks": "MediQuo/MediQuoController.framework",
    "dependencies": {
      "MediQuo-Core": [
        "0.22.1"
      ],
      "MediQuo-Schema": [
        "0.22.1"
      ],
      "RxBlocking": [
        "4.1.2"
      ],
      "RxSwift": [
        "4.1.2"
      ],
      "SwiftDate": [
        "4.5.1"
      ]
    }
  }
}
