{
  "name": "MediQuo",
  "version": "0.25.3",
  "summary": "MediQuo Framework for iOS",
  "authors": {
    "Medipremium, S.L.": "medipremium@gmail.com"
  },
  "license": {
    "type": "Copyright",
    "text": "Copyright © 2018 Medipremium S.L. All rights reserved."
  },
  "source": {
    "http": "https://mediquo.bintray.com/generic/MediQuo_0.25.3.zip"
  },
  "homepage": "https://www.medipremium.com",
  "platforms": {
    "ios": "10.0"
  },
  "swift_version": "4.1",
  "module_name": "MediQuo",
  "ios": {
    "frameworks": [
      "Foundation",
      "CoreLocation",
      "UIKit",
      "Photos",
      "StoreKit"
    ],
    "vendored_frameworks": "MediQuo/MediQuo.framework",
    "dependencies": {
      "MediQuo-Core": [
        "0.25.3"
      ],
      "MediQuo-Schema": [
        "0.25.3"
      ],
      "MediQuo-Controller": [
        "0.25.3"
      ],
      "MediQuo-Remote": [
        "0.25.3"
      ],
      "MediQuo-Socket": [
        "0.25.3"
      ],
      "MediQuo-Storage": [
        "0.25.3"
      ],
      "JSQDataSourcesKit": [
        "7.0.0"
      ],
      "AlamofireImage": [
        "3.3.1"
      ],
      "MessageKit": [
        "1.0.0"
      ],
      "R.swift": [
        "4.0.0"
      ]
    }
  }
}
